<svg xmlns="http://www.w3.org/2000/svg" viewBox="0 0 28.796 29.579">
  <defs>
    <style>
      .cls-1 {
        stroke: #000;
        stroke-width: 0.5px;
      }

      .cls-2 {
        fill: #010002;
      }
    </style>
  </defs>
  <g id="twitter" transform="translate(0.25 0.25)">
    <g id="facebook" transform="translate(0 0)">
      <g id="Group_284">
        <path id="Path_59" class="cls-1" d="M14.123,29.064a13.879,13.879,0,0,1-10-4.236,14.851,14.851,0,0,1,0-20.59,13.888,13.888,0,0,1,19.531-.471c.118.118.353.235.471.471a14.851,14.851,0,0,1,0,20.59A13.879,13.879,0,0,1,14.123,29.064Zm0-27.767A12.551,12.551,0,0,0,5.064,5.18,13.572,13.572,0,0,0,5.064,24a12.5,12.5,0,0,0,17.766.353L23.183,24a13.572,13.572,0,0,0,0-18.825A12.551,12.551,0,0,0,14.123,1.3Z" transform="translate(0.025 0.015)"/>
      </g>
    </g>
    <g id="Group_219" data-name="Group 219" transform="translate(6.089 8.665)">
      <g id="Group_218" data-name="Group 218">
        <path id="Path_95" data-name="Path 95" class="cls-2" d="M20.931,9.13a4.933,4.933,0,0,1-1.883.471A3.006,3.006,0,0,0,20.46,7.835a10.178,10.178,0,0,1-2,.824A3.384,3.384,0,0,0,16.107,7.6a3.164,3.164,0,0,0-3.177,3.177,1.492,1.492,0,0,0,.118.706A9.421,9.421,0,0,1,6.459,8.188a3.758,3.758,0,0,0-.353,1.647,3.07,3.07,0,0,0,1.412,2.588,2.8,2.8,0,0,1-1.412-.353h0A3.047,3.047,0,0,0,8.694,15.13a2,2,0,0,1-.824.118,1.061,1.061,0,0,1-.588-.118,2.8,2.8,0,0,0,2.824,2.353,6.6,6.6,0,0,1-4,1.412H5.4a8.587,8.587,0,0,0,4.824,1.412,8.964,8.964,0,0,0,9.06-9.06v-.353A7.743,7.743,0,0,0,20.931,9.13Z" transform="translate(-5.4 -7.6)"/>
      </g>
    </g>
  </g>
</svg>
