<svg xmlns="http://www.w3.org/2000/svg" viewBox="0 0 19.068 18.165">
  <defs>
    <style>
      .cls-1 {
        stroke: #000;
        stroke-width: 0.1px;
      }
    </style>
  </defs>
  <g id="profile_1_" data-name="profile(1)" transform="translate(0.05 -13.365)">
    <path id="Path_88" data-name="Path 88" class="cls-1" d="M135.064,23.553a5.069,5.069,0,1,0-5.077-5.077A5.078,5.078,0,0,0,135.064,23.553Zm0-8.814a3.737,3.737,0,1,1-3.738,3.737A3.748,3.748,0,0,1,135.064,14.739Z" transform="translate(-125.611)"/>
    <path id="Path_89" data-name="Path 89" class="cls-1" d="M.67,347.965H18.3a.665.665,0,0,0,.67-.67,6.377,6.377,0,0,0-6.369-6.369H6.369A6.377,6.377,0,0,0,0,347.3.665.665,0,0,0,.67,347.965Zm5.7-5.7H12.6a5.027,5.027,0,0,1,4.983,4.36H1.386A5.04,5.04,0,0,1,6.369,342.265Z" transform="translate(0 -316.485)"/>
  </g>
</svg>
