<svg xmlns="http://www.w3.org/2000/svg" viewBox="0 0 28.72 29.62">
  <defs>
    <style>
      .cls-1 {
        stroke: #000;
        stroke-width: 0.5px;
      }
    </style>
  </defs>
  <g id="facebook" transform="translate(0.25 0.25)">
    <g id="Group_284" data-name="Group 284" transform="translate(0 0)">
      <path id="Path_59" data-name="Path 59" class="cls-1" d="M18.907,33.915A13.778,13.778,0,0,1,8.934,29.65a14.881,14.881,0,0,1,0-20.59,13.8,13.8,0,0,1,19.949,0,14.881,14.881,0,0,1,0,20.59,13.8,13.8,0,0,1-9.975,4.265Zm0-27.841A12.589,12.589,0,0,0,9.8,9.962a13.6,13.6,0,0,0,0,18.791,12.6,12.6,0,0,0,18.21,0,13.6,13.6,0,0,0,0-18.791A12.589,12.589,0,0,0,18.907,6.074Z" transform="translate(-4.798 -4.795)"/>
    </g>
    <g id="Group_285" data-name="Group 285" transform="translate(9.509 5.412)">
      <path id="f_1_" d="M167.175,109.3v-8.354h2.717l.407-3.256h-3.124v-2.07c0-.941.255-1.587,1.562-1.587h1.672v-2.91A22.291,22.291,0,0,0,167.977,91c-2.407,0-4.054,1.518-4.054,4.3v2.4H161.2v3.256h2.723v8.354h3.252Z" transform="translate(-161.2 -91)"/>
    </g>
  </g>
</svg>
